{
    "key": "group_6233ecb60984b",
    "title": "Theme Options - Companies",
    "fields": [
        {
            "key": "field_621652abeecdb",
            "label": "Company Names",
            "name": "ec_company_names",
            "type": "repeater",
            "instructions": "",
            "required": 0,
            "conditional_logic": 0,
            "wrapper": {
                "width": "",
                "class": "",
                "id": ""
            },
            "collapsed": "field_621652cfeecdc",
            "min": 0,
            "max": 0,
            "layout": "block",
            "button_label": "Add Company",
            "sub_fields": [
                {
                    "key": "field_621652cfeecdc",
                    "label": "Company",
                    "name": "ec_company",
                    "type": "text",
                    "instructions": "",
                    "required": 0,
                    "conditional_logic": 0,
                    "wrapper": {
                        "width": "",
                        "class": "",
                        "id": ""
                    },
                    "default_value": "",
                    "placeholder": "",
                    "prepend": "",
                    "append": "",
                    "maxlength": ""
                }
            ]
        }
    ],
    "location": [
        [
            {
                "param": "options_page",
                "operator": "==",
                "value": "acf-options-companies"
            }
        ]
    ],
    "menu_order": 0,
    "position": "normal",
    "style": "default",
    "label_placement": "top",
    "instruction_placement": "label",
    "hide_on_screen": "",
    "active": true,
    "description": "",
    "show_in_rest": 0,
    "modified": 1650249004
}